{"page":1,"total_results":19852,"total_pages":993,"results":[{"vote_count":1045,"id":399579,"video":false,"vote_average":6.8,"title":"Alita: Battle Angel","popularity":332.321,"poster_path":"\/xRWht48C2V8XNfzvPehyClOvDni.jpg","original_language":"en","original_title":"Alita: Battle Angel","genre_ids":[28,878,53],"backdrop_path":"\/aQXTw3wIWuFMy0beXRiZ1xVKtcf.jpg","adult":false,"overview":"When Alita awakens with no memory of who she is in a future world she does not recognize, she is taken in by Ido, a compassionate doctor who realizes that somewhere in this abandoned cyborg shell is the heart and soul of a young woman with an extraordinary past.","release_date":"2019-01-31"},{"vote_count":1745,"id":490132,"video":false,"vote_average":8.3,"title":"Green Book","popularity":271.065,"poster_path":"\/7BsvSuDQuoqhWmU2fL7W2GOcZHU.jpg","original_language":"en","original_title":"Green Book","genre_ids":[18,35,10402],"backdrop_path":"\/78PjwaykLY2QqhMfWRDvmfbC6EV.jpg","adult":false,"overview":"Tony Lip, a bouncer in 1962, is hired to drive pianist Don Shirley on a tour through the Deep South in the days when African Americans, forced to find alternate accommodations and services due to segregation laws below the Mason-Dixon Line, relied on a guide called The Negro Motorist Green Book.","release_date":"2018-11-16"},{"vote_count":2120,"id":324857,"video":false,"vote_average":8.5,"title":"Spider-Man: Into the Spider-Verse","popularity":230.655,"poster_path":"\/iiZZdoQBEYBv6id8su7ImL0oCbD.jpg","original_language":"en","original_title":"Spider-Man: Into the Spider-Verse","genre_ids":[28,12,16,878,35],"backdrop_path":"\/uUiId6cG32JSRI6RyBQSvQtLjz2.jpg","adult":false,"overview":"Miles Morales is juggling his life between being a high school student and being a spider-man. When Wilson \"Kingpin\" Fisk uses a super collider, others from across the Spider-Verse are transported to this dimension.","release_date":"2018-12-07"},{"vote_count":807,"id":166428,"video":false,"vote_average":7.9,"title":"How to Train Your Dragon: The Hidden World","popularity":201.622,"poster_path":"\/xvx4Yhf0DVH8G4LzNISpMfFBDy2.jpg","original_language":"en","original_title":"How to Train Your Dragon: The Hidden World","genre_ids":[16,10751,12],"backdrop_path":"\/h3KN24PrOheHVYs9ypuOIdFBEpX.jpg","adult":false,"overview":"As Hiccup fulfills his dream of creating a peaceful dragon utopia, Toothless’ discovery of an untamed, elusive mate draws the Night Fury away. When danger mounts at home and Hiccup’s reign as village chief is tested, both dragon and rider must make impossible decisions to save their kind.","release_date":"2019-01-03"},{"vote_count":1580,"id":450465,"video":false,"vote_average":6.7,"title":"Glass","popularity":192.787,"poster_path":"\/svIDTNUoajS8dLEo7EosxvyAsgJ.jpg","original_language":"en","original_title":"Glass","genre_ids":[53,9648,18,14],"backdrop_path":"\/lvjscO8wmpEbIfOEZi92Je8Ktlg.jpg","adult":false,"overview":"In a series of escalating encounters, security guard David Dunn uses his supernatural abilities to track Kevin Wendell Crumb, a disturbed man who has twenty-four personalities. Meanwhile, the shadowy presence of Elijah Price emerges as an orchestrator who holds secrets critical to both men.","release_date":"2019-01-16"},{"vote_count":3594,"id":338952,"video":false,"vote_average":6.9,"title":"Fantastic Beasts: The Crimes of Grindelwald","popularity":173.138,"poster_path":"\/kQKcbJ9uYkTQql2R8L4jTUz7l90.jpg","original_language":"en","original_title":"Fantastic Beasts: The Crimes of Grindelwald","genre_ids":[10751,14,12],"backdrop_path":"\/wDN3FIcQQ1HI7mz1OOKYHSQtaiE.jpg","adult":false,"overview":"Gellert Grindelwald has escaped imprisonment and has begun gathering followers to his cause—elevating wizards above all non-magical beings. The only one capable of putting a stop to him is the wizard he once called his closest friend, Albus Dumbledore. However, Dumbledore will need to seek help from the wizard who had thwarted Grindelwald once before, his former student Newt Scamander, who agrees to help, unaware of the dangers that lie ahead. Lines are drawn as love and loyalty are tested, even among the truest friends and family, in an increasingly divided wizarding world.","release_date":"2018-11-14"},{"vote_count":5662,"id":424694,"video":false,"vote_average":8.1,"title":"Bohemian Rhapsody","popularity":165.019,"poster_path":"\/lHu1wtNaczFPGFDTrjCSzeLPTKN.jpg","original_language":"en","original_title":"Bohemian Rhapsody","genre_ids":[18,10402],"backdrop_path":"\/xcaSYLBhmDzJ6P14bcKe0KTh3QV.jpg","adult":false,"overview":"Singer Freddie Mercury, guitarist Brian May, drummer Roger Taylor and bass guitarist John Deacon take the music world by storm when they form the rock 'n' roll band Queen in 1970. Hit songs become instant classics. When Mercury's increasingly wild lifestyle starts to spiral out of control, Queen soon faces its greatest challenge yet – finding a way to keep the band together amid the success and excess.","release_date":"2018-10-24"},{"vote_count":1491,"id":480530,"video":false,"vote_average":6.6,"title":"Creed II","popularity":151.006,"poster_path":"\/v3QyboWRoA4O9RbcsqH8tJMe8EB.jpg","original_language":"en","original_title":"Creed II","genre_ids":[18],"backdrop_path":"\/8yqLPNwNCtpOPc3XkOlkSMnghzw.jpg","adult":false,"overview":"Between personal obligations and training for his next big fight against an opponent with ties to his family's past, Adonis Creed is up against the challenge of his life.","release_date":"2018-11-21"},{"vote_count":1594,"id":404368,"video":false,"vote_average":7.3,"title":"Ralph Breaks the Internet","popularity":135.555,"poster_path":"\/ybhsGCKHpzqJDRsfnGmHNUHHrqB.jpg","original_language":"en","original_title":"Ralph Breaks the Internet","genre_ids":[10751,16,35,14],"backdrop_path":"\/88poTBTafMXaz73vYi3c74g0y2k.jpg","adult":false,"overview":"Video game bad guy Ralph and fellow misfit Vanellope von Schweetz must risk it all by traveling to the World Wide Web in search of a replacement part to save Vanellope's video game, \"Sugar Rush.\" In way over their heads, Ralph and Vanellope rely on the citizens of the internet -- the netizens -- to help navigate their way, including an entrepreneur named Yesss, who is the head algorithm and the heart and soul of trend-making site BuzzzTube.","release_date":"2018-11-20"},{"vote_count":245,"id":449563,"video":false,"vote_average":6.5,"title":"Isn't It Romantic","popularity":129.511,"poster_path":"\/5xNBYXuv8wqiLVDhsfqCOr75DL7.jpg","original_language":"en","original_title":"Isn't It Romantic","genre_ids":[35,14,10749],"backdrop_path":"\/fPwJmIg6CVNNXUJvL1wgeexzwEp.jpg","adult":false,"overview":"For a long time, Natalie, an Australian architect living in New York City, had always believed that what she had seen in rom-coms is all fantasy. But after thwarting a mugger at a subway station only to be knocked out while fleeing, Natalie wakes up and discovers that her life has suddenly become her worst nightmare—a romantic comedy—and she is the leading lady.","release_date":"2019-02-13"},{"vote_count":999,"id":428078,"video":false,"vote_average":5.9,"title":"Mortal Engines","popularity":119.749,"poster_path":"\/uXJVpPXxZO4L8Rz3IG1Y8XvZJcg.jpg","original_language":"en","original_title":"Mortal Engines","genre_ids":[878,28,12,14,53],"backdrop_path":"\/rm2oMykm5nX6SzXFr7TGHkO6r8Z.jpg","adult":false,"overview":"Many thousands of years in the future, Earth’s cities roam the globe on huge wheels, devouring each other in a struggle for ever diminishing resources. On one of these massive traction cities, the old London, Tom Natsworthy has an unexpected encounter with a mysterious young woman from the wastelands who will change the course of his life forever.","release_date":"2018-11-27"},{"vote_count":4162,"id":332562,"video":false,"vote_average":7.5,"title":"A Star Is Born","popularity":118.683,"poster_path":"\/wrFpXMNBRj2PBiN4Z5kix51XaIZ.jpg","original_language":"en","original_title":"A Star Is Born","genre_ids":[18,10402,10749],"backdrop_path":"\/wqtaHWOEZ3rXDJ8c6ZZShulbo18.jpg","adult":false,"overview":"Seasoned musician Jackson Maine discovers — and falls in love with — struggling artist Ally. She has just about given up on her dream to make it big as a singer — until Jack coaxes her into the spotlight. But even as Ally's career takes off, the personal side of their relationship is breaking down, as Jack fights an ongoing battle with his own internal demons.","release_date":"2018-10-03"},{"vote_count":90,"id":452832,"video":false,"vote_average":4.8,"title":"Serenity","popularity":118.619,"poster_path":"\/hgWAcic93phg4DOuQ8NrsgQWiqu.jpg","original_language":"en","original_title":"Serenity","genre_ids":[53,18,9648,878],"backdrop_path":"\/oOROXoQ402tHgK6NowmMUSLffkW.jpg","adult":false,"overview":"Baker Dill is a fishing boat captain leading tours off a tranquil, tropical enclave called Plymouth Island. His quiet life is shattered, however, when his ex-wife Karen tracks him down with a desperate plea for help.","release_date":"2019-01-24"},{"vote_count":3897,"id":297802,"video":false,"vote_average":6.8,"title":"Aquaman","popularity":107.474,"poster_path":"\/5Kg76ldv7VxeX9YlcQXiowHgdX6.jpg","original_language":"en","original_title":"Aquaman","genre_ids":[28,12,14],"backdrop_path":"\/5A2bMlLfJrAfX9bqAibOL2gCruF.jpg","adult":false,"overview":"Once home to the most advanced civilization on Earth, the city of Atlantis is now an underwater kingdom ruled by the power-hungry King Orm. With a vast army at his disposal, Orm plans to conquer the remaining oceanic people -- and then the surface world. Standing in his way is Aquaman, Orm's half-human, half-Atlantean brother and true heir to the throne. With help from royal counselor Vulko, Aquaman must retrieve the legendary Trident of Atlan and embrace his destiny as protector of the deep.","release_date":"2018-12-07"},{"vote_count":1320,"id":375262,"video":false,"vote_average":7.7,"title":"The Favourite","popularity":106.083,"poster_path":"\/cwBq0onfmeilU5xgqNNjJAMPfpw.jpg","original_language":"en","original_title":"The Favourite","genre_ids":[18,36,35],"backdrop_path":"\/ekWMoBZ4B9rM60INZEh5FAD2HFR.jpg","adult":false,"overview":"England, early 18th century. The close relationship between Queen Anne and Sarah Churchill is threatened by the arrival of Sarah's cousin, Abigail Hill, resulting in a bitter rivalry between the two cousins to be the Queen's favourite.","release_date":"2018-11-23"},{"vote_count":11706,"id":299536,"video":false,"vote_average":8.3,"title":"Avengers: Infinity War","popularity":103.311,"poster_path":"\/7WsyChQLEftFiDOVTGkv3hFpyyt.jpg","original_language":"en","original_title":"Avengers: Infinity War","genre_ids":[12,28,14],"backdrop_path":"\/bOGkgRGdhrBYJSLpXaxhXVstddV.jpg","adult":false,"overview":"As the Avengers and their allies have continued to protect the world from threats too large for any one hero to handle, a new danger has emerged from the cosmic shadows: Thanos. A despot of intergalactic infamy, his goal is to collect all six Infinity Stones, artifacts of unimaginable power, and use them to inflict his twisted will on all of reality. Everything the Avengers have fought for has led up to this moment - the fate of Earth and existence itself has never been more uncertain.","release_date":"2018-04-25"},{"vote_count":219,"id":512196,"video":false,"vote_average":6.3,"title":"Happy Death Day 2U","popularity":99.956,"poster_path":"\/whtt9F8PFqvEgc4fDSHZPkitFk4.jpg","original_language":"en","original_title":"Happy Death Day 2U","genre_ids":[27,9648,53,878,35],"backdrop_path":"\/7trJGwprMUMKhvSx94lmsq6d985.jpg","adult":false,"overview":"Collegian Tree Gelbman wakes up in horror to learn that she's stuck in a parallel universe. Her boyfriend Carter is now with someone else, and her friends and fellow students seem to be completely different versions of themselves. When Tree discovers that Carter's roommate has been altering time, she finds herself once again the target of a masked killer. When the psychopath starts to go after her inner circle, Tree soon realizes that she must die over and over again to save everyone.","release_date":"2019-02-13"},{"vote_count":19,"id":390634,"video":false,"vote_average":4.2,"title":"Fate\/stay night: Heaven’s Feel II. lost butterfly","popularity":96.691,"poster_path":"\/4tS0iyKQBDFqVpVcH21MSJwXZdq.jpg","original_language":"ja","original_title":"劇場版「Fate\/stay night [Heaven's Feel] ⅠⅠ. lost butterfly」","genre_ids":[16,28,14,12],"backdrop_path":"\/3haESpzscyP1pLl2BxQ9j5KK9cM.jpg","adult":false,"overview":"Theatrical-release adaptation of the visual novel \"Fate\/stay night\", following the third and final route. (Part 2 of a trilogy.)","release_date":"2019-01-12"},{"vote_count":155,"id":438650,"video":false,"vote_average":5.2,"title":"Cold Pursuit","popularity":94.697,"poster_path":"\/hXgmWPd1SuujRZ4QnKLzrj79PAw.jpg","original_language":"en","original_title":"Cold Pursuit","genre_ids":[53,28,18],"backdrop_path":"\/7Wg6FOEvhduISlxSzSCutAl4lPq.jpg","adult":false,"overview":"Nels Coxman's quiet life comes crashing down when his beloved son dies under mysterious circumstances. His search for the truth soon becomes a quest for revenge as he seeks coldblooded justice against a drug lord and his inner circle.","release_date":"2019-02-07"},{"vote_count":28,"id":450001,"video":false,"vote_average":5.7,"title":"Master Z: Ip Man Legacy","popularity":94.269,"poster_path":"\/f2PN2ff0VwcVUSgeJUx6pKHwp4r.jpg","original_language":"cn","original_title":"葉問外傳：張天志","genre_ids":[28],"backdrop_path":"\/nv4KsjnhcSIZtuw2mkT9IxoQ5oq.jpg","adult":false,"overview":"After being defeated by Ip Man, Cheung Tin Chi is attempting to keep a low profile. While going about his business, he gets into a fight with a foreigner by the name of Davidson, who is a big boss behind the bar district. Tin Chi fights hard with Wing Chun and earns respect.","release_date":"2018-12-20"},{"vote_count":0,"id":299537,"video":false,"vote_average":0,"title":"Captain Marvel","popularity":93.6,"poster_path":"\/vW2dy7UyZqqpEP3bHageT9bei0o.jpg","original_language":"en","original_title":"Captain Marvel","genre_ids":[28,12,878,9648],"backdrop_path":"\/d1hQaeKeAW3FBc3v6tIP5utleU0.jpg","adult":false,"overview":"The story follows Carol Danvers as she becomes one of the universe’s most powerful heroes when Earth is caught in the middle of a galactic war between two alien races. Set in the 1990s, Captain Marvel is an all-new adventure from a previously unseen period in the history of the Marvel Cinematic Universe.","release_date":"2019-03-06"},{"vote_count":257,"id":491418,"video":false,"vote_average":7.6,"title":"Instant Family","popularity":90.976,"poster_path":"\/xYV1mODz99w7AjKDSQ7h2mzZhVe.jpg","original_language":"en","original_title":"Instant Family","genre_ids":[35,18],"backdrop_path":"\/lwICpzZudw8BZ0bODaHgRWCdioB.jpg","adult":false,"overview":"When Pete and Ellie decide to start a family, they stumble into the world of foster care adoption. They hope to take in one small child but when they meet three siblings, including a rebellious 15 year old girl, they find themselves speeding from zero to three kids overnight.","release_date":"2018-11-16"},{"vote_count":747,"id":375588,"video":false,"vote_average":5.7,"title":"Robin Hood","popularity":87.867,"poster_path":"\/AiRfixFcfTkNbn2A73qVJPlpkUo.jpg","original_language":"en","original_title":"Robin Hood","genre_ids":[12,28,53],"backdrop_path":"\/AuA50D7T7S7OEVcGo0ZKaMhERn0.jpg","adult":false,"overview":"A war-hardened Crusader and his Moorish commander mount an audacious revolt against the corrupt English crown.","release_date":"2018-11-20"},{"vote_count":5132,"id":335983,"video":false,"vote_average":6.6,"title":"Venom","popularity":83.095,"poster_path":"\/2uNW4WbgBXL25BAbXGLnLqX71Sw.jpg","original_language":"en","original_title":"Venom","genre_ids":[878,28],"backdrop_path":"\/VuukZLgaCrho2Ar8Scl9HtV3yD.jpg","adult":false,"overview":"Investigative journalist Eddie Brock attempts a comeback following a scandal, but accidentally becomes the host of Venom, a violent, super powerful alien symbiote. Soon, he must rely on his newfound powers to protect the world from a shadowy organization looking for a symbiote of their own.","release_date":"2018-09-28"},{"vote_count":296,"id":457136,"video":false,"vote_average":6.6,"title":"Mary Queen of Scots","popularity":81.58,"poster_path":"\/b5RMzLAyq5QW6GtN9sIeAEMLlBI.jpg","original_language":"en","original_title":"Mary Queen of Scots","genre_ids":[18,36],"backdrop_path":"\/iv5N169nQIzrS0pZ8MBEiemTtVt.jpg","adult":false,"overview":"In 1561, Mary Stuart, widow of the King of France, returns to Scotland, reclaims her rightful throne and menaces the future of Queen Elizabeth I as ruler of England, because she has a legitimate claim to the English throne. Betrayals, rebellions, conspiracies and their own life choices imperil both Queens. They experience the bitter cost of power, until their tragic fate is finally fulfilled.","release_date":"2018-12-21"},{"vote_count":719,"id":504172,"video":false,"vote_average":6.5,"title":"The Mule","popularity":77.582,"poster_path":"\/t0idiLMalKMj2pLsvqHrOM4LPdQ.jpg","original_language":"en","original_title":"The Mule","genre_ids":[80,18,53],"backdrop_path":"\/wVhrbxbMmFfx05YNlqsQfu1gRS5.jpg","adult":false,"overview":"Earl Stone, a man in his 80s who is broke, alone, and facing foreclosure of his business when he is offered a job that simply requires him to drive. Easy enough, but, unbeknownst to Earl, he’s just signed on as a drug courier for a Mexican cartel. He does so well that his cargo increases exponentially, and Earl hit the radar of hard-charging DEA agent Colin Bates.","release_date":"2018-12-14"},{"vote_count":111,"id":505954,"video":false,"vote_average":4.7,"title":"T-34","popularity":75.731,"poster_path":"\/wNJF8R5QE6nBT7DQoKk8t6YD1MM.jpg","original_language":"ru","original_title":"T-34","genre_ids":[10752,18,12,28],"backdrop_path":"\/59qyrVGLLtrcuFtJGdixzn7H4OI.jpg","adult":false,"overview":"In 1944, a courageous group of Russian soldiers managed to escape from German captivity in a half-destroyed legendary T-34 tank. Those were the times of unforgettable bravery, fierce fighting, unbreakable love, and legendary miracles.","release_date":"2018-12-27"},{"vote_count":136,"id":503616,"video":false,"vote_average":6.1,"title":"Second Act","popularity":75.52,"poster_path":"\/maUMIZVGs8g1hYtq4dQ9Lg9FtVF.jpg","original_language":"en","original_title":"Second Act","genre_ids":[10749,35,18],"backdrop_path":"\/osmnZ2rYpBK0cOK9Vjdf4jyIZWK.jpg","adult":false,"overview":"Maya, a 40-year-old woman struggling with frustrations from unfulfilled dreams. Until that is, she gets the chance to prove to Madison Avenue that street smarts are as valuable as book smarts, and that it is never too late for a second act.","release_date":"2018-11-22"},{"vote_count":302,"id":522681,"video":false,"vote_average":6.2,"title":"Escape Room","popularity":73.934,"poster_path":"\/8yZAx7tlKRZIg7pJfaPhl00yHIQ.jpg","original_language":"en","original_title":"Escape Room","genre_ids":[27,53,28],"backdrop_path":"\/mWLljCmpqlcYQh7uh51BBMwCZwN.jpg","adult":false,"overview":"Six strangers find themselves in circumstances beyond their control, and must use their wits to survive.","release_date":"2019-01-03"},{"vote_count":642,"id":438799,"video":false,"vote_average":6.7,"title":"Overlord","popularity":73.453,"poster_path":"\/l76Rgp32z2UxjULApxGXAPpYdAP.jpg","original_language":"en","original_title":"Overlord","genre_ids":[27,10752,28,878],"backdrop_path":"\/sHNC8hjAu4ZKXYhG3cp8ghRZ02B.jpg","adult":false,"overview":"France, World War II, June 1944. On the eve of D-Day, some American paratroopers fall behind enemy lines after their plane crashes during a mission consisting of destroying a German radio tower in Cielblanc, a small village near the beaches of Normandy. After reaching their target, the surviving paratroopers realize that, in addition to fighting Nazi troops that patrol the village, they also must fight against something else.","release_date":"2018-11-01"},{"vote_count":3290,"id":337167,"video":false,"vote_average":6.1,"title":"Fifty Shades Freed","popularity":72.998,"poster_path":"\/jjPJ4s3DWZZvI4vw8Xfi4Vqa1Q8.jpg","original_language":"en","original_title":"Fifty Shades Freed","genre_ids":[18,10749],"backdrop_path":"\/9ywA15OAiwjSTvg3cBs9B7kOCBF.jpg","adult":false,"overview":"Believing they have left behind shadowy figures from their past, newlyweds Christian and Ana fully embrace an inextricable connection and shared life of luxury. But just as she steps into her role as Mrs. Grey and he relaxes into an unfamiliar stability, new threats could jeopardize their happy ending before it even begins.","release_date":"2018-01-17"},{"vote_count":204,"id":280217,"video":false,"vote_average":6.9,"title":"The Lego Movie 2: The Second Part","popularity":72.025,"poster_path":"\/QTESAsBVZwjtGJNDP7utiGV37z.jpg","original_language":"en","original_title":"The Lego Movie 2: The Second Part","genre_ids":[28,12,16,35,10751,878,14],"backdrop_path":"\/8kPozGb4BDrcWBSsGPrkULG2tP9.jpg","adult":false,"overview":"It's been five years since everything was awesome and the citizens are facing a huge new threat: LEGO DUPLO® invaders from outer space, wrecking everything faster than they can rebuild.","release_date":"2019-01-26"},{"vote_count":10888,"id":284054,"video":false,"vote_average":7.4,"title":"Black Panther","popularity":64.049,"poster_path":"\/uxzzxijgPIY7slzFvMotPv8wjKA.jpg","original_language":"en","original_title":"Black Panther","genre_ids":[28,12,14,878],"backdrop_path":"\/6ELJEzQJ3Y45HczvreC3dg0GV5R.jpg","adult":false,"overview":"King T'Challa returns home from America to the reclusive, technologically advanced African nation of Wakanda to serve as his country's new leader. However, T'Challa soon finds that he is challenged for the throne by factions within his own country as well as without. Using powers reserved to Wakandan kings, T'Challa assumes the Black Panther mantel to join with girlfriend Nakia, the queen-mother, his princess-kid sister, members of the Dora Milaje (the Wakandan 'special forces') and an American secret agent, to prevent Wakanda from being dragged into a world war.","release_date":"2018-02-13"},{"vote_count":881,"id":400650,"video":false,"vote_average":6.8,"title":"Mary Poppins Returns","popularity":61.206,"poster_path":"\/uTVGku4LibMGyKgQvjBtv3OYfAX.jpg","original_language":"en","original_title":"Mary Poppins Returns","genre_ids":[14,10751,35],"backdrop_path":"\/cwiJQXezWz876K3jS57Sq56RYCZ.jpg","adult":false,"overview":"In Depression-era London, a now-grown Jane and Michael Banks, along with Michael's three children, are visited by the enigmatic Mary Poppins following a personal loss. Through her unique magical skills, and with the aid of her friend Jack, she helps the family rediscover the joy and wonder missing in their lives.","release_date":"2018-12-19"},{"vote_count":37,"id":471507,"video":false,"vote_average":6.7,"title":"Destroyer","popularity":60.777,"poster_path":"\/sHw9gTdo43nJL82py0oaROkXXNr.jpg","original_language":"en","original_title":"Destroyer","genre_ids":[53,80,18,28],"backdrop_path":"\/n4eLeK2OdxRDqwIJtwYC212vmBF.jpg","adult":false,"overview":"Erin Bell is an LAPD detective who, as a young cop, was placed undercover with a gang in the California desert with tragic results. When the leader of that gang re-emerges many years later, she must work her way back through the remaining members and into her own history with them to finally reckon with the demons that destroyed her past.","release_date":"2018-12-25"},{"vote_count":642,"id":401469,"video":false,"vote_average":6.6,"title":"Widows","popularity":60.154,"poster_path":"\/d31SGJSaX29ba5ZUbZcesGoDE7I.jpg","original_language":"en","original_title":"Widows","genre_ids":[80,18,53],"backdrop_path":"\/71OjxI27tK7kTIiPnMkdQDx14pe.jpg","adult":false,"overview":"A police shootout leaves four thieves dead during an explosive armed robbery attempt in Chicago. Their widows have nothing in common except a debt left behind by their spouses' criminal activities. Hoping to forge a future on their own terms, they join forces to pull off a heist.","release_date":"2018-11-06"},{"vote_count":27,"id":33125,"video":false,"vote_average":6.6,"title":"Border","popularity":60.097,"poster_path":"\/mmGwawOiUaP4Nkr2b1k0xsVhuY5.jpg","original_language":"hi","original_title":"Border","genre_ids":[28,36],"backdrop_path":"\/k45BW6kEXNtOqNT2uAniMnjcKNQ.jpg","adult":false,"overview":"The year is 1971 when the Pakistani Army is at war with the Indian Soldiers. The Indian battalion is posted in Longewala region in Punjab and are just 150 in number while the Pakistani Army consists of 2000 armed soldiers with tanks.","release_date":"1997-07-13"},{"vote_count":5392,"id":260513,"video":false,"vote_average":7.6,"title":"Incredibles 2","popularity":59.845,"poster_path":"\/9lFKBtaVIhP7E2Pk0IY1CwTKTMZ.jpg","original_language":"en","original_title":"Incredibles 2","genre_ids":[28,12,16,10751],"backdrop_path":"\/mabuNsGJgRuCTuGqjFkWe1xdu19.jpg","adult":false,"overview":"Elastigirl springs into action to save the day, while Mr. Incredible faces his greatest challenge yet – taking care of the problems of his three children.","release_date":"2018-06-14"},{"vote_count":5,"id":543103,"video":false,"vote_average":5,"title":"Kamen Rider Heisei Generations FOREVER","popularity":59.559,"poster_path":"\/6sOFQDlkY6El1B2P5gklzJfVdsT.jpg","original_language":"ja","original_title":"仮面ライダー平成ジェネレーションズFOREVER","genre_ids":[28,12,878],"backdrop_path":"\/uufTqD2CSn1NqL3cXEl4Vp3bCav.jpg","adult":false,"overview":"In the world of Sougo Tokiwa and Sento Kiryu, their \"companions\" are losing their memories one after the other as they're replaced by other people. The Super Time Jacker, Tid , appears before them. He orders his powerful underlings, Another Double and Another Den-O, to pursue a young boy called Shingo. While fighting to protect Shingo, Sougo meets Ataru, a young man who loves Riders, but Ataru says that Kamen Riders aren't real. What is the meaning of those words? While the mystery deepens, the true enemy that Sougo and Sento must defeat appears in the Kuriogatake mountain...","release_date":"2018-12-22"},{"vote_count":1283,"id":424783,"video":false,"vote_average":6.4,"title":"Bumblebee","popularity":59.166,"poster_path":"\/fw02ONlDhrYjTSZV8XO6hhU3ds3.jpg","original_language":"en","original_title":"Bumblebee","genre_ids":[28,12,878],"backdrop_path":"\/hMANgfPHR1tRObNp2oPiOi9mMlz.jpg","adult":false,"overview":"On the run in the year 1987, Bumblebee finds refuge in a junkyard in a small Californian beach town. Charlie, on the cusp of turning 18 and trying to find her place in the world, discovers Bumblebee, battle-scarred and broken.  When Charlie revives him, she quickly learns this is no ordinary yellow VW bug.","release_date":"2018-12-15"}]}
